Chronological and gestational DNAm age estimation using different methylation-based clocks
…
BiocManager::install("preprocessCore", 
                     configure.args = "--disable-threading", 
                     force = TRUE)

4.1 Data in Horvaths format (e.g.csv with CpGs in rows)

Let us start by reproducing the results proposed in Horvath (2013). It uses the format available in the file MethylationDataExample55.csv from his tutorial (available here). These data are available at methylclock package. Although these data can be loaded into R by using standard functions such as read.csv we hihgly recommend to use functions from tidiverse, in particular read_csv from readr package. The main reason is that currently researchers are analyzing Illumina 450K or EPIC arrays that contains a huge number of CpGs that can take a long time to be loaded when using basic importing R function. These functions import csv data as tibble which is one of the possible formats of DNAmAge function

library(tidyverse)
path <- system.file("extdata", package = "methylclock")
MethylationData <- read_csv(file.path(path, "MethylationDataExample55.csv"))
MethylationData

  # A tibble: 27,578 x 17
     ProbeID GSM946048 GSM946049 GSM946052 GSM946054 GSM946055 GSM946056 GSM946059
     <chr>       <dbl>     <dbl>     <dbl>     <dbl>     <dbl>     <dbl>     <dbl>
   1 cg0000~    0.706    0.730     0.705     0.751     0.715     0.634     0.682  
   2 cg0000~    0.272    0.274     0.311     0.279     0.178     0.269     0.330  
   3 cg0000~    0.0370   0.0147    0.0171    0.0290    0.0163    0.0243    0.0127 
   4 cg0000~    0.133    0.120     0.121     0.107     0.110     0.129     0.102  
   5 cg0000~    0.0309   0.0192    0.0217    0.0132    0.0181    0.0243    0.0199 
   6 cg0000~    0.0700   0.0715    0.0655    0.0719    0.0914    0.0508    0.0294 
   7 cg0000~    0.993    0.993     0.993     0.994     0.991     0.994     0.993  
   8 cg0000~    0.0215   0.0202    0.0187    0.0169    0.0162    0.0143    0.0172 
   9 cg0000~    0.0105   0.00518   0.00410   0.00671   0.00758   0.00518   0.00543
  10 cg0001~    0.634    0.635     0.621     0.639     0.599     0.591     0.594  
  # ... with 27,568 more rows, and 9 more variables: GSM946062 <dbl>,
  #   GSM946064 <dbl>, GSM946065 <dbl>, GSM946066 <dbl>, GSM946067 <dbl>,
  #   GSM946073 <dbl>, GSM946074 <dbl>, GSM946075 <dbl>, GSM946076 <dbl>
…
  Warning in predAge(cpgs.imp, coefPedBE, intercept = TRUE, min.perc): The number of missing CpGs for PedBE clock exceeds  80 %.
    ---> This DNAm clock will be NA.

  Warning in predAge(cpgs.imp, coefTL, intercept = TRUE, min.perc): The number of missing CpGs for TL clock exceeds  80 %.
    ---> This DNAm clock will be NA.

  Warning in predAge(cpgs.imp, coefBlup, intercept = TRUE, min.perc): The number of missing CpGs for Blup clock exceeds  80 %.
    ---> This DNAm clock will be NA.

  Warning in predAge(cpgs.imp, coefEN, intercept = TRUE, min.perc): The number of missing CpGs for EN clock exceeds  80 %.
    ---> This DNAm clock will be NA.

age.gse58045

  # A tibble: 172 x 24
     id       Horvath ageAcc.Horvath ageAcc2.Horvath ageAcc3.Horvath Hannum Levine
     <chr>      <dbl>          <dbl>           <dbl>           <dbl> <lgl>   <dbl>
   1 GSM1399~    65.6          1.07            4.58            5.46  NA       50.7
   2 GSM1399~    66.3          0.197           4.06            5.06  NA       51.3
   3 GSM1399~    53.9         -5.31           -2.98           -2.42  NA       40.5
   4 GSM1399~    40.6         -5.23           -5.89           -6.14  NA       31.3
   5 GSM1399~    50.1          0.982           1.06            1.28  NA       41.1
   6 GSM1399~    63.7         -0.895           2.64            2.92  NA       48.1
   7 GSM1399~    44.7         -0.875          -1.59           -1.76  NA       29.2
   8 GSM1399~    59.7         -8.55           -4.20           -3.48  NA       41.0
   9 GSM1399~    48.4         -5.84           -4.63           -2.50  NA       43.8
  10 GSM1399~    59.3         -3.93           -0.719          -0.609 NA       46.1
  # ... with 162 more rows, and 17 more variables: ageAcc.Levine <dbl>,
  #   ageAcc2.Levine <dbl>, ageAcc3.Levine <dbl>, BNN <dbl>, ageAcc.BNN <dbl>,
  #   ageAcc2.BNN <dbl>, ageAcc3.BNN <dbl>, skinHorvath <lgl>, PedBE <lgl>,
  #   Wu <dbl>, ageAcc.Wu <dbl>, ageAcc2.Wu <dbl>, ageAcc3.Wu <dbl>, TL <lgl>,
  #   BLUP <lgl>, EN <lgl>, age <dbl>
…
  Warning in predAge(cpgs.imp, coefTL, intercept = TRUE, min.perc): The number of missing CpGs for TL clock exceeds  80 %.
    ---> This DNAm clock will be NA.

  Warning in predAge(cpgs.imp, coefBlup, intercept = TRUE, min.perc): The number of missing CpGs for Blup clock exceeds  80 %.
    ---> This DNAm clock will be NA.

  Warning in predAge(cpgs.imp, coefEN, intercept = TRUE, min.perc): The number of missing CpGs for EN clock exceeds  80 %.
    ---> This DNAm clock will be NA.

We can observe there are missing data. The funcion automatically impute those using impute.knn function from impute package since complete cases are required to compute the different methylation clocks. The estimates are:

age.gse19711

  # A tibble: 540 x 24
     id       Horvath ageAcc.Horvath ageAcc2.Horvath ageAcc3.Horvath Hannum Levine
     <chr>      <dbl>          <dbl>           <dbl>           <dbl> <lgl>   <dbl>
   1 GSM4919~    62.9          -5.14          -0.351          -1.10  NA       61.1
   2 GSM4919~    68.8         -12.2           -2.85           -2.13  NA       57.0
   3 GSM4919~    60.0           3.96           4.54            4.37  NA       43.0
   4 GSM4919~    57.9          -4.13          -1.45           -1.38  NA       40.9
   5 GSM4919~    59.0         -13.0           -6.79           -6.98  NA       57.0
   6 GSM4919~    57.0          -4.00          -1.66           -1.09  NA       44.7
   7 GSM4919~    61.9          -3.08           0.657           0.183 NA       47.9
   8 GSM4919~    59.1         -11.9           -6.07           -5.53  NA       50.0
   9 GSM4919~    60.7         -16.3           -8.33           -9.33  NA       47.7
  10 GSM4919~    51.1          -7.93          -6.30           -6.33  NA       52.5
  # ... with 530 more rows, and 17 more variables: ageAcc.Levine <dbl>,
  #   ageAcc2.Levine <dbl>, ageAcc3.Levine <dbl>, BNN <dbl>, ageAcc.BNN <dbl>,
  #   ageAcc2.BNN <dbl>, ageAcc3.BNN <dbl>, skinHorvath <lgl>, PedBE <lgl>,
  #   Wu <dbl>, ageAcc.Wu <dbl>, ageAcc2.Wu <dbl>, ageAcc3.Wu <dbl>, TL <lgl>,
  #   BLUP <lgl>, EN <lgl>, age <dbl>
…
like in DNAmAge we can use the parameter min.perc to set the minimum missing percentage.

The results are the same as those described in the additional file 7 of Knight et al. (2016) (link here)

Let us continue by illustrating how to compute GA of real examples. The PROGRESS cohort data is available in the additional file 8 of Knight et al. (2016). It is available at methylclock as a tibble:

progress_data

  # A tibble: 148 x 151
     CpGmarker  `784` `1052` `1048` `1017` `956` `1038` `989` `946` `941` `1024`
     <chr>      <dbl>  <dbl>  <dbl>  <dbl> <dbl>  <dbl> <dbl> <dbl> <dbl>  <dbl>
   1 cg00022866 0.289  0.372  0.347  0.351 0.313  0.300 0.298 0.294 0.322  0.313
   2 cg00466249 0.658  0.724  0.700  0.717 0.695  0.665 0.710 0.686 0.692  0.704
   3 cg00546897 0.682  0.711  0.684  0.717 0.627  0.605 0.684 0.716 0.684  0.666
   4 cg00575744 0.312  0.381  0.300  0.331 0.294  0.348 0.284 0.305 0.319  0.325
   5 cg00689340 0.566  0.576  0.556  0.571 0.521  0.569 0.599 0.575 0.532  0.564
   6 cg01056568 0.558  0.620  0.529  0.600 0.577  0.574 0.590 0.576 0.548  0.555
   7 cg01184449 0.712  0.718  0.667  0.744 0.668  0.676 0.710 0.744 0.685  0.717
   8 cg01348086 0.195  0.186  0.180  0.194 0.212  0.208 0.183 0.129 0.161  0.144
   9 cg02100629 0.329  0.330  0.340  0.344 0.268  0.280 0.288 0.314 0.283  0.346
  10 cg02813863 0.819  0.858  0.832  0.874 0.861  0.830 0.894 0.873 0.895  0.863
  # ... with 138 more rows, and 140 more variables: `1047` <dbl>, `1035` <dbl>,
  #   `988` <dbl>, `939` <dbl>, `936` <dbl>, `748` <dbl>, `1031` <dbl>,
  #   `903` <dbl>, `864` <dbl>, `874` <dbl>, `898` <dbl>, `1013` <dbl>,
  #   `971` <dbl>, `966` <dbl>, `866` <dbl>, `924` <dbl>, `931` <dbl>,
  #   `1007` <dbl>, `954` <dbl>, `958` <dbl>, `1037` <dbl>, `965` <dbl>,
  #   `1008` <dbl>, `1005` <dbl>, `962` <dbl>, `979` <dbl>, `881` <dbl>,
  #   `876` <dbl>, `764` <dbl>, `743` <dbl>, `987` <dbl>, `930` <dbl>, ...

This file also contains different variables that are available in this tibble.

progress_vars

  # A tibble: 150 x 3
     id    birthweight   EGA
     <chr>       <dbl> <dbl>
   1 784          2.62  38  
   2 1052         2.59  38.3
   3 1048         3.20  38  
   4 1017         3.28  38.6
   5 956          2.79  37.1
   6 1038         2.89  38.1
   7 989          2.47  38  
   8 946          2.42  37.7
   9 941          2.96  36.7
  10 1024         2.61  38.6
  # ... with 140 more rows
…
  Warning in predAge(cpgs.imp, coefBohlin, intercept = TRUE, min.perc): The number of missing CpGs for Bohlin clock exceeds  80 %.
    ---> This DNAm clock will be NA.

  Warning in predAge(cpgs.imp, coefMayneGA, intercept = TRUE, min.perc): The number of missing CpGs for Mayne clock exceeds  80 %.
    ---> This DNAm clock will be NA.

  Warning in predAge(cpgs.imp, coefEPIC, intercept = TRUE, min.perc): The number of missing CpGs for EPIC clock exceeds  80 %.
    ---> This DNAm clock will be NA.

  Warning in DNAmGA(progress_data): The number of missing CpGs for Lee clocks exceeds 80%.
    ---> This DNAm clock will be NA.

ga.progress

  # A tibble: 150 x 6
     id    Knight Bohlin Mayne EPIC  Lee  
     <chr>  <dbl>  <dbl> <lgl> <lgl> <lgl>
   1 784     38.8     NA NA    NA    NA   
   2 1052    37.2     NA NA    NA    NA   
   3 1048    40.3     NA NA    NA    NA   
   4 1017    39.2     NA NA    NA    NA   
   5 956     38.9     NA NA    NA    NA   
   6 1038    39.2     NA NA    NA    NA   
   7 989     37.2     NA NA    NA    NA   
   8 946     35.4     NA NA    NA    NA   
   9 941     33.5     NA NA    NA    NA   
  10 1024    37.4     NA NA    NA    NA   
  # ... with 140 more rows
…
  Warning in predAge(cpgs.imp, coefBohlin, intercept = TRUE, min.perc): The number of missing CpGs for Bohlin clock exceeds  80 %.
    ---> This DNAm clock will be NA.

  Warning in predAge(cpgs.imp, coefMayneGA, intercept = TRUE, min.perc): The number of missing CpGs for Mayne clock exceeds  80 %.
    ---> This DNAm clock will be NA.

  Warning in predAge(cpgs.imp, coefEPIC, intercept = TRUE, min.perc): The number of missing CpGs for EPIC clock exceeds  80 %.
    ---> This DNAm clock will be NA.

  Warning in DNAmGA(progress_data, age = progress_vars$EGA, cell.count = FALSE): The number of missing CpGs for Lee clocks exceeds 80%.
    ---> This DNAm clock will be NA.

accga.progress

  # A tibble: 150 x 9
     id    Knight ageAcc.Knight ageAcc2.Knight Bohlin Mayne EPIC  Lee     age
     <chr>  <dbl>         <dbl>          <dbl>  <dbl> <lgl> <lgl> <lgl> <dbl>
   1 784     38.8         0.792          1.27      NA NA    NA    NA     38  
   2 1052    37.2        -1.05          -0.488     NA NA    NA    NA     38.3
   3 1048    40.3         2.29           2.77      NA NA    NA    NA     38  
   4 1017    39.2         0.643          1.28      NA NA    NA    NA     38.6
   5 956     38.9         1.75           1.99      NA NA    NA    NA     37.1
   6 1038    39.2         1.09           1.61      NA NA    NA    NA     38.1
   7 989     37.2        -0.774         -0.292     NA NA    NA    NA     38  
   8 946     35.4        -2.36          -1.96      NA NA    NA    NA     37.7
   9 941     33.5        -3.18          -3.06      NA NA    NA    NA     36.7
  10 1024    37.4        -1.12          -0.486     NA NA    NA    NA     38.6
  # ... with 140 more rows
…
